计算机专业课程/计算机系统3/实验3/参考资料/code/exp3.2/test_run_dir/Combination_should_pass/Combination.vcd
$date
2023-11-07T06:16+0000
$end
$version
0.2
$end
$comment

$end
$timescale 1ns  $end
$scope module Combination $end
 $var wire 1 1 io_sw_op $end
 $var wire 1 7 registerFile $end
 $var wire 1 < instructionMemory $end
 $var wire 32 C io_wrData $end
 $var wire 1 I io_lw_op $end
 $var wire 32 \ io_RS1_out $end
 $var wire 32 ] io_Instr_word $end
 $var wire 1 ` io_sub_op $end
 $var wire 1 k decoder $end
 $var wire 1 o clock $end
 $var wire 1 "! io_rdEna $end
 $var wire 32 "# io_RS2_out $end
 $var wire 1 "* io_add_op $end
 $var wire 1 "2 io_wrEna $end
 $var wire 1 "6 io_nop_op $end
 $var wire 1 "; reset $end
 $var wire 10 "< io_wrAddr $end
  $scope module decoder $end
   $var wire 1 % io_sw_op $end
   $var wire 6 * opcode $end
   $var wire 6 - func $end
   $var wire 1 0 io_nop_op $end
   $var wire 1 A io_lw_op $end
   $var wire 32 r io_Instr_word $end
   $var wire 1 "' io_sub_op $end
   $var wire 1 "G io_add_op $end
  $upscope $end
  $scope module registerFile $end
   $var wire 32 " registers_17 $end
   $var wire 32 $ registers_9 $end
   $var wire 32 & registers_0 $end
   $var wire 32 ( registers_3 $end
   $var wire 5 5 io_RS1 $end
   $var wire 32 ; registers_28 $end
   $var wire 32 > registers_16 $end
   $var wire 1 B clock $end
   $var wire 32 D registers_22 $end
   $var wire 32 G registers_10 $end
   $var wire 32 H registers_25 $end
   $var wire 32 J registers_19 $end
   $var wire 32 M io_RS2_out $end
   $var wire 32 N registers_2 $end
   $var wire 32 P registers_31 $end
   $var wire 32 S registers_13 $end
   $var wire 32 W registers_5 $end
   $var wire 32 X registers_8 $end
   $var wire 32 ^ io_WB_data $end
   $var wire 32 b registers_30 $end
   $var wire 32 f registers_12 $end
   $var wire 32 h registers_27 $end
   $var wire 32 n registers_21 $end
   $var wire 1 s io_Reg_WB $end
   $var wire 32 t registers_15 $end
   $var wire 32 y registers_18 $end
   $var wire 32 | registers_24 $end
   $var wire 32 ~ registers_1 $end
   $var wire 32 "& registers_4 $end
   $var wire 1 ") reset $end
   $var wire 32 ", registers_7 $end
   $var wire 32 "5 registers_23 $end
   $var wire 32 "8 registers_11 $end
   $var wire 32 ": registers_26 $end
   $var wire 5 "? io_RS2 $end
   $var wire 32 "C registers_29 $end
   $var wire 32 "E io_RS1_out $end
   $var wire 32 "F registers_14 $end
   $var wire 32 "H registers_6 $end
   $var wire 32 "I registers_20 $end
  $upscope $end
  $scope module instructionMemory $end
   $var wire 32 # pcReg $end
   $var wire 1 . reset $end
   $var wire 1 / mem_rdData0_en_pipe_0 $end
   $var wire 1 ? mem_rdData1_en_pipe_0 $end
   $var wire 1 R io_wrEna $end
   $var wire 10 U io_wrAddr $end
   $var wire 7 d mem_rdData3_addr_pipe_0 $end
   $var wire 7 e mem_rdData2_addr_pipe_0 $end
   $var wire 1 i mem_rdData2_en_pipe_0 $end
   $var wire 8 m mem $end
   $var wire 1 q clock $end
   $var wire 1 x mem_rdData3_en_pipe_0 $end
   $var wire 32 } io_wrData $end
   $var wire 7 "/ mem_rdData1_addr_pipe_0 $end
   $var wire 7 "1 mem_rdData0_addr_pipe_0 $end
   $var wire 32 "@ io_rdData $end
   $var wire 1 "D io_rdEna $end
    $scope module mem $end
     $var wire 8 ' MPORT_1 $end
     $var wire 8 g MPORT_3 $end
     $var wire 8 "9 MPORT_2 $end
     $var wire 8 "K MPORT $end
      $scope module MPORT_1 $end
       $var wire 1 ! clk $end
       $var wire 8 E data $end
       $var wire 1 F valid $end
       $var wire 7 c pipeline_addr_0 $end
       $var wire 1 j pipeline_valid_0 $end
       $var wire 1 p en $end
       $var wire 1 "+ mask $end
       $var wire 8 "= pipeline_data_0 $end
       $var wire 7 "J addr $end
      $upscope $end
      $scope module MPORT $end
       $var wire 1 ) clk $end
       $var wire 1 4 pipeline_valid_0 $end
       $var wire 1 8 en $end
       $var wire 8 K pipeline_data_0 $end
       $var wire 8 O data $end
       $var wire 1 "% valid $end
       $var wire 1 "( mask $end
       $var wire 7 "4 pipeline_addr_0 $end
       $var wire 7 "L addr $end
      $upscope $end
      $scope module rdData1 $end
       $var wire 7 + addr $end
       $var wire 1 = en $end
       $var wire 8 Z data $end
       $var wire 1 "B clk $end
      $upscope $end
      $scope module rdData2 $end
       $var wire 1 , clk $end
       $var wire 7 L addr $end
       $var wire 8 u data $end
       $var wire 1 "" en $end
      $upscope $end
      $scope module MPORT_2 $end
       $var wire 1 2 valid $end
       $var wire 1 6 en $end
       $var wire 7 9 addr $end
       $var wire 1 Q clk $end
       $var wire 7 T pipeline_addr_0 $end
       $var wire 8 a data $end
       $var wire 1 "- pipeline_valid_0 $end
       $var wire 8 ". pipeline_data_0 $end
       $var wire 1 "A mask $end
      $upscope $end
      $scope module MPORT_3 $end
       $var wire 1 3 mask $end
       $var wire 7 V addr $end
       $var wire 7 Y pipeline_addr_0 $end
       $var wire 1 l en $end
       $var wire 8 v data $end
       $var wire 1 z clk $end
       $var wire 1 "$ valid $end
       $var wire 8 "3 pipeline_data_0 $end
       $var wire 1 "7 pipeline_valid_0 $end
      $upscope $end
      $scope module rdData3 $end
       $var wire 1 : en $end
       $var wire 1 [ clk $end
       $var wire 7 _ addr $end
       $var wire 8 "0 data $end
      $upscope $end
      $scope module rdData0 $end
       $var wire 8 @ data $end
       $var wire 1 w clk $end
       $var wire 1 { en $end
       $var wire 7 "> addr $end
      $upscope $end
    $upscope $end
  $upscope $end
$upscope $end
$enddefinitions $end
$dumpvars
b00000000000000000000000000000000 n
0"7
0""
b0000000 "4
0o
0R
0=
13
b00000 5
b00000000000000000000000000000000 r
b00000000000000000000000000000000 "8
b00000000000000000000000000000000 "#
b0000000 V
b00000000000000000000000000000000 "I
b00000000 "=
b00000000000000000000000000000000 }
b00000000000000000000000000000000 h
0")
b00000000000000000000000000000000 b
b0000000 T
0/
0x
0[
0F
b0000000 9
0)
b00000000 "3
0z
1"A
b00000000 g
b00000000000000000000000000000000 $
b00000000000000000000000000000000 "C
b00000000000000000000000000000000 "&
b0000000 _
b00000000000000000000000000000000 ;
b00000000 a
0%
b00000000000000000000000000000000 (
0p
b0000000 "L
0"2
06
0!
b0000000 "/
0l
b00000000000000000000000000000000 P
b00000000 v
0:
0{
b00000000000000000000000000000000 |
0Q
b00000000000000000000000000000000 "5
b0000000 Y
0I
04
b00000000000000000000000000000000 J
0`
0"*
b00000000 @
b00000000 "0
0w
00
b0000000 ">
0"$
b00000000 O
b00000000000000000000000000000000 "H
b00000000000000000000000000000000 "@
b0000000 d
0?
b00000000000000000000000000000000 t
b00000000 "K
b00000000 ".
b00000000000000000000000000000000 D
b00000000 E
b00000000000000000000000000000000 S
b00000000000000000000000000000000 >
0q
0i
07
b00000000000000000000000000000000 #
b00000000000000000000000000000000 ":
b0000000000 "<
0k
b00000000 u
0"-
b00000000000000000000000000000000 f
0"D
0"'
b00000000 Z
b00000000000000000000000000000000 "E
b00000000000000000000000000000000 M
1"(
b00000000 "9
b00000000000000000000000000000000 y
0"B
b00000000000000000000000000000000 \
b00000000000000000000000000000000 G
b00000000 m
01
0"%
b00000000000000000000000000000000 ^
b00000000000000000000000000000000 ",
b0000000 e
b000000 -
b0000000 "1
b00000000000000000000000000000000 X
b00000000000000000000000000000000 C
0"6
0"!
0B
b00000000000000000000000000000000 &
b0000000 L
0<
b0000000 "J
b0000000 c
b00000000000000000000000000000000 "
0j
b00000000000000000000000000000000 N
08
b0000000 +
b0000000000 U
02
1"+
b00000000 '
b00000000000000000000000000000000 ~
0"G
0.
b00000000000000000000000000000000 "F
b000000 *
b00000000000000000000000000000000 ]
b00000000000000000000000000000000 H
0";
0s
b00000 "?
b00000000000000000000000000000000 W
0A
0,
b00000000 K
$end
#0
10
1"6
1.
b0000011 V
b0000010 9
1";
1")
b0000001 "J
#1
b00000000000000000000000000001100 f
1Q
b00000000000000000000000000000111 ",
1"B
b00000000000000000000000000010011 J
b00000000000000000000000000011011 h
b00000000000000000000000000001101 S
b00000000000000000000000000011101 "C
b00000000000000000000000000000001 ~
b00000000000000000000000000000100 "&
b00000000000000000000000000011110 b
b0000001 c
b00000000000000000000000000000010 N
b00000000000000000000000000010010 y
b00000000000000000000000000001010 G
1z
b00000000000000000000000000011001 H
b00000000000000000000000000001011 "8
b00000000000000000000000000011000 |
1,
b00000000000000000000000000001111 t
b00000000000000000000000000011010 ":
1B
b00000000000000000000000000001000 X
b0000011 Y
b00000000000000000000000000010110 D
1w
b00000000000000000000000000010100 "I
1o
b00000000000000000000000000010111 "5
b00000000000000000000000000000011 (
1[
b00000000000000000000000000010000 >
1q
1)
1!
b0000010 T
b00000000000000000000000000010001 "
b00000000000000000000000000001110 "F
b00000000000000000000000000001001 $
b00000000000000000000000000000101 W
b00000000000000000000000000000110 "H
b00000000000000000000000000011111 P
b00000000000000000000000000011100 ;
b00000000000000000000000000010101 n
#6
0Q
1"$
1R
0"B
b00000000010000110000100000100000 }
1"%
0";
16
b01000011 a
1F
0z
12
0,
0B
1"2
b00000000010000110000100000100000 C
0.
0w
0o
b00001000 E
1p
0[
0q
0)
0!
18
0")
1l
b00100000 O
#11
1B
1Q
b00100000 u
14
1"B
1w
1o
b00100000 K
b00100000 Z
1"-
1[
1j
1)
b00001000 "=
1q
1!
b01000011 ".
b00100000 @
b00100000 "0
1z
1"7
1,
#16
0B
0Q
b00000000101001100000000000100010 C
0"B
b00000000101001100000000000100010 }
0w
0o
b0000101 "J
b00000000 E
b10100110 a
0[
b0000000100 "<
0q
0)
b0000100 "L
0!
b0000000100 U
0z
b0000111 V
b0000110 9
b00100010 O
0,
#21
1B
1Q
1"B
b0000111 Y
b0000100 "4
1w
1o
b00100010 K
1[
1)
b00000000 "=
1q
1!
b0000110 T
b0000101 c
b10100110 ".
1z
1,
#26
0B
0Q
b10001100101000100000000000110010 C
b10001100 v
0"B
b10001100101000100000000000110010 }
0w
0o
b0001001 "J
b10100010 a
0[
b0000001000 "<
0q
0)
b0001000 "L
0!
b0000001000 U
0z
b0001011 V
b0001010 9
b00110010 O
0,
#31
1B
1Q
b10001100 "3
1"B
b0001011 Y
b0001000 "4
1w
1o
b00110010 K
1[
1)
1q
b10100010 ".
1!
b0001010 T
b0001001 c
1z
1,
#36
0B
0Q
b10101100101000100000000000110100 C
b10101100 v
0"B
b10101100101000100000000000110100 }
0w
0o
b0001101 "J
0[
b0000001100 "<
0q
0)
b0001100 "L
0!
b0000001100 U
0z
b0001111 V
b0001110 9
b00110100 O
0,
#41
1B
1Q
b10101100 "3
1"B
b0001111 Y
b0001100 "4
1w
1o
b00110100 K
1[
1q
1)
1!
b0001110 T
b0001101 c
1z
1,
#46
0B
0Q
b00001100001000100000000000110010 C
b00001100 v
0"B
b00001100001000100000000000110010 }
0w
0o
b0010001 "J
b00100010 a
0[
b0000010000 "<
0q
0)
b0010000 "L
0!
b0000010000 U
0z
b0010011 V
b0010010 9
b00110010 O
0,
#51
1B
1Q
b00001100 "3
1"B
b0010011 Y
b0010000 "4
1w
1o
b00110010 K
1[
1)
1q
b00100010 ".
1!
b0010010 T
b0010001 c
1z
1,
#56
0Q
0"$
0R
0"B
b00001 5
0"%
06
0F
1"!
0z
02
b001000 *
b00100000001000000010000000100000 ]
0,
0B
0"2
b100000 -
0w
0o
0p
0[
0q
0)
b00000000000000000000000000000001 \
0!
1"D
b00100000001000000010000000100000 r
b00000000000000000000000000000001 "E
08
0l
b00100000001000000010000000100000 "@
#61
1Q
04
1"B
b00010 5
1i
b0000010 L
0j
1/
b00000000000000000000000000000011 M
00
0"6
b0000011 d
b00011 "?
1z
b0000010 e
0"7
1""
b00000000010000110000100000100000 ]
b000000 *
1{
b00000000000000000000000000000011 "#
b0000001 +
1,
b0000011 _
1B
b01000011 u
1w
1o
b00001000 Z
1x
1=
0"-
1[
1q
1)
b00000000000000000000000000000010 \
1!
1?
b0000001 "/
b00000000010000110000100000100000 r
b00000000000000000000000000000010 "E
b00000000 "0
b00000000000000000000000000000100 #
1"G
1:
1"*
b00000000010000110000100000100000 "@
#66
0!
0B
0Q
0"B
0z
0w
0o
0[
0,
0q
0)
#71
1Q
1"B
b00101 5
b0000110 L
1"'
b00000000000000000000000000000110 M
b0000100 ">
b0000111 d
b00110 "?
1z
b0000110 e
b00000000101001100000000000100010 ]
b00000000000000000000000000000110 "#
b0000101 +
1,
b0000111 _
1B
b10100110 u
b100010 -
1`
1w
1o
b00000000 Z
1[
1q
1)
b00000000000000000000000000000101 \
1!
b0000101 "/
b00000000101001100000000000100010 r
b00100010 @
b00000000000000000000000000000101 "E
b00000000000000000000000000001000 #
b0000100 "1
0"G
0"*
b00000000101001100000000000100010 "@
#76
0!
0B
0Q
0"B
0z
0w
0o
0[
0,
0q
0)
#81
1Q
1"B
b0001010 L
0"'
b00000000000000000000000000000010 M
b0001000 ">
b0001011 d
b00010 "?
1z
b0001010 e
b100011 *
b10001100101000100000000000110010 ]
b00000000000000000000000000000010 "#
b0001001 +
1I
1A
1,
b0001011 _
1B
b10100010 u
b110010 -
0`
1w
1o
1[
1q
1)
1!
b0001001 "/
b10001100101000100000000000110010 r
b00110010 @
b10001100 "0
b00000000000000000000000000001100 #
b0001000 "1
b10001100101000100000000000110010 "@
#86
0!
0B
0Q
0"B
0z
0w
0o
0[
0,
0q
0)
#91
1Q
1"B
b0001110 L
b0001100 ">
11
b0001111 d
1z
b0001110 e
b101011 *
b10101100101000100000000000110100 ]
b0001101 +
0I
0A
1,
b0001111 _
1B
b110100 -
1%
1w
1o
1[
1q
1)
1!
b0001101 "/
b10101100101000100000000000110100 r
b00110100 @
b10101100 "0
b00000000000000000000000000010000 #
b0001100 "1
b10101100101000100000000000110100 "@
#96
0!
0B
0Q
0"B
0z
0w
0o
0[
0,
0q
0)
#101
1Q
1"B
b00001 5
b0010010 L
10
b0010000 ">
1"6
b0010011 d
01
1z
b0010010 e
b000011 *
b00001100001000100000000000110010 ]
b0010001 +
1,
b0010011 _
1B
b00100010 u
b110010 -
0%
1w
1o
1[
1q
1)
b00000000000000000000000000000001 \
1!
b0010001 "/
b00001100001000100000000000110010 r
b00110010 @
b00001100 "0
b00000000000000000000000000000001 "E
b00000000000000000000000000010100 #
b0010000 "1
b00001100001000100000000000110010 "@
#106
0!
0B
0Q
0"B
0z
0w
0o
0[
0,
0q
0)
#111
1Q
1"B
b00000 5
b0010110 L
b00000000000000000000000000000000 M
b0010100 ">
b0010111 d
b00000 "?
1z
b0010110 e
b000000 *
b00000000000000000000000000000000 ]
b00000000000000000000000000000000 "#
b0010101 +
1,
b0010111 _
1B
b00000000 u
b000000 -
1w
1o
1[
1q
1)
b00000000000000000000000000000000 \
1!
b0010101 "/
b00000000000000000000000000000000 r
b00000000 @
b00000000 "0
b00000000000000000000000000000000 "E
b00000000000000000000000000011000 #
b0010100 "1
b00000000000000000000000000000000 "@
#116
0!
0B
0Q
0"B
0z
0w
0o
0[
0,
0q
0)
#121
1B
1Q
1"B
1w
1o
b0011010 L
1[
1q
1)
1!
b0011001 "/
b0011000 ">
b0011011 d
b00000000000000000000000000011100 #
1z
b0011010 e
b0011000 "1
b0011001 +
1,
b0011011 _
#126
0!
0B
0Q
0"B
0z
0w
0o
0[
0,
0q
0)
#131
1B
1Q
1"B
1w
1o
b0011110 L
1[
1q
1)
1!
b0011101 "/
b0011100 ">
b0011111 d
b00000000000000000000000000100000 #
1z
b0011110 e
b0011100 "1
b0011101 +
1,
b0011111 _
#136
0!
0B
0Q
0"B
0z
0w
0o
0[
0,
0q
0)
#141
1B
1Q
1"B
1w
1o
b0100010 L
1[
1q
1)
1!
b0100001 "/
b0100000 ">
b0100011 d
b00000000000000000000000000100100 #
1z
b0100010 e
b0100000 "1
b0100001 +
1,
b0100011 _
#146
0!
0B
0Q
0"B
0z
0w
0o
0[
0,
0q
0)
#151
1B
1Q
1"B
1w
1o
b0100110 L
1[
1q
1)
1!
b0100101 "/
b0100100 ">
b0100111 d
b00000000000000000000000000101000 #
1z
b0100110 e
b0100100 "1
b0100101 +
1,
b0100111 _
#156
b00000000000000000000000000000000 C
0"!
0o
b0000000000 "<
